# Holds the current milestone.
# Should be in the format of
#
#    x.x.x
#    x.x.x.x
#    x.x.x+
#
# Referenced by build/moz.configure/init.configure.
# Hopefully I'll be able to automate replacement of *all*
# hardcoded milestones in the tree from these two files.
#--------------------------------------------------------

102.2.0
